{"data": {"hits": [{"id": "05ba3e8b-9ff0-4318-aac8-c09662571640", "data_format": "MAF", "access": "controlled", "file_name": "681bc0f8-9444-488c-8c57-12c87f1474d2.wxs.VarScan2.aliquot.maf.gz", "submitter_id": "8a805e04-8dc5-468d-a11f-60439ee63aa7", "data_category": "Simple Nucleotide Variation", "acl": ["phs001486"], "type": "annotated_somatic_mutation", "platform": "Illumina", "file_size": 411314, "created_datetime": "2023-04-17T15:45:17.977362-05:00", "md5sum": "f79b183b3f03cf7db8213861c1558922", "updated_datetime": "2025-04-07T17:13:09.336794-05:00", "file_id": "05ba3e8b-9ff0-4318-aac8-c09662571640", "data_type": "Annotated Somatic Mutation", "state": "released", "experimental_strategy": "WXS", "version": "1", "data_release": "43.0 - 45.0"}, {"id": "cba34e67-ffb3-4c4f-9e7f-63cfb5c8c73e", "data_format": "IDAT", "chip_position": "R06C01", "access": "open", "file_name": "5c5ae585-fe9d-4929-933b-a6500a88c862_noid_Grn.idat", "plate_well": "R06C01", "channel": "Green", "submitter_id": "b4288c42-369a-4080-a1d1-2396bcff61c6", "data_category": "DNA Methylation", "acl": ["open"], "type": "masked_methylation_array", "platform": "Illumina Methylation Epic", "file_size": 13677955, "created_datetime": "2023-07-20T09:14:51.889715-05:00", "chip_id": "206842040010", "md5sum": "8876f7d65b42e51ced8a58ee4255923b", "updated_datetime": "2023-07-24T09:17:24.014025-05:00", "file_id": "cba34e67-ffb3-4c4f-9e7f-63cfb5c8c73e", "data_type": "Masked Intensities", "state": "released", "experimental_strategy": "Methylation Array", "version": "1", "data_release": "38.0 - 45.0"}, {"id": "2420f1f4-21fc-4c19-a789-ec33231cfa37", "data_format": "BAM", "access": "controlled", "file_name": "b54e844d-ef9f-42b5-9e74-da77326617c7.rna_seq.chimeric.gdc_realn.bam", "wgs_coverage": "Not Applicable", "submitter_id": "fdb4a951-b0b1-4a39-b466-9e0657b6398a", "data_category": "Sequencing Reads", "acl": ["phs001486"], "type": "aligned_reads", "platform": "Illumina", "file_size": 114793833, "created_datetime": "2023-05-03T11:56:57.246610-05:00", "md5sum": "2cdad6613650d66f81f46602bc7ea30a", "updated_datetime": "2025-04-07T17:13:09.336794-05:00", "file_id": "2420f1f4-21fc-4c19-a789-ec33231cfa37", "data_type": "Aligned Reads", "state": "released", "experimental_strategy": "RNA-Seq", "version": "1", "data_release": "43.0 - 45.0"}, {"id": "03ad8c97-6783-4dac-aa3f-597a1308cf4f", "data_format": "VCF", "access": "controlled", "file_name": "54e48529-7cd2-460b-a7db-495d99598542.wgs.BRASS.raw_structural_variation.vcf.gz", "submitter_id": "622a04f5-1d39-4d4d-b7d6-13a8189dc56b", "data_category": "Somatic Structural Variation", "acl": ["phs001486"], "type": "structural_variation", "platform": "Illumina", "file_size": 87203, "created_datetime": "2023-04-14T16:15:19.120880-05:00", "md5sum": "14f3f94a7ccf2379bf51773836691838", "updated_datetime": "2025-04-07T17:13:09.336794-05:00", "file_id": "03ad8c97-6783-4dac-aa3f-597a1308cf4f", "data_type": "Structural Rearrangement", "state": "released", "experimental_strategy": "WGS", "version": "1", "data_release": "43.0 - 45.0"}, {"id": "e6680926-a9b4-481e-a22c-55bf3fa57a68", "proportion_reads_mapped": 0.9998778594182556, "access": "controlled", "wgs_coverage": "Not Applicable", "proportion_base_mismatch": 0.00357988, "contamination_error": 0.00014806781292981742, "acl": ["phs001486"], "type": "aligned_reads", "platform": "Illumina", "created_datetime": "2023-04-17T11:33:21.183464-05:00", "md5sum": "43117c2e79651e97f0537363da898352", "updated_datetime": "2025-04-07T17:13:09.336794-05:00", "pairs_on_diff_chr": 868607, "state": "released", "data_format": "BAM", "total_reads": 241148352, "proportion_coverage_30x": 0.977912, "file_name": "7df387f8-6da8-402e-83a9-36d038848651_wxs_gdc_realn.bam", "mean_coverage": 166.285472, "proportion_reads_duplicated": 0.35582984203848095, "submitter_id": "054120d3-807b-4c9b-80da-d1a4e0072a82", "data_category": "Sequencing Reads", "proportion_coverage_10x": 0.981127, "file_size": 26467047090, "contamination": 0.0015411253331429, "average_base_quality": 31, "file_id": "e6680926-a9b4-481e-a22c-55bf3fa57a68", "data_type": "Aligned Reads", "average_insert_size": 332, "average_read_length": 108, "experimental_strategy": "WXS", "proportion_targets_no_coverage": 0.012619, "version": "1", "data_release": "43.0 - 45.0"}, {"id": "c55f6dfa-159c-40a2-a2e7-b5833931c070", "data_format": "VCF", "access": "controlled", "file_name": "1289b406-41ff-445e-93c4-075d0a2edb25.wgs.sanger_raw_pindel.raw_somatic_mutation.vcf.gz", "submitter_id": "a9dc0a9c-b9e2-4177-bbae-29676b409634", "data_category": "Simple Nucleotide Variation", "acl": ["phs001486"], "type": "simple_somatic_mutation", "platform": "Illumina", "file_size": 97477118, "created_datetime": "2023-04-14T16:24:03.740622-05:00", "md5sum": "0d057860851def3e60753bb9947eb8c5", "updated_datetime": "2025-04-07T17:13:09.336794-05:00", "file_id": "c55f6dfa-159c-40a2-a2e7-b5833931c070", "data_type": "Raw Simple Somatic Mutation", "state": "released", "experimental_strategy": "WGS", "version": "1", "data_release": "43.0 - 45.0"}, {"id": "3cbf107e-98b3-4100-a5a3-f369577b7c42", "data_format": "MAF", "access": "controlled", "file_name": "ef13f75f-8ad7-4b6f-bdab-8760b9cd2ac8.wxs.MuTect2.aliquot.maf.gz", "submitter_id": "32369289-c8ba-4f38-bc09-bb0ed710541a", "data_category": "Simple Nucleotide Variation", "acl": ["phs001486"], "type": "annotated_somatic_mutation", "platform": "Illumina", "file_size": 2310526, "created_datetime": "2023-04-17T15:45:17.977362-05:00", "md5sum": "97b81d6b7b5c314bc50e1ce09fe55c56", "updated_datetime": "2025-04-07T17:13:09.336794-05:00", "file_id": "3cbf107e-98b3-4100-a5a3-f369577b7c42", "data_type": "Annotated Somatic Mutation", "state": "released", "experimental_strategy": "WXS", "version": "1", "data_release": "43.0 - 45.0"}, {"id": "e289a6d4-62ca-4c5b-b7f2-5cc8b33cbfab", "data_format": "VCF", "access": "controlled", "file_name": "HCMI-CMDC.605450c1-bdce-43d4-80ff-f9cab284cc28.wgs.tumor_normal.gatk4_mutect2.raw_somatic_mutation.vcf.gz", "submitter_id": "36a2de46-99db-445b-b360-e66acdcb1cbf", "data_category": "Simple Nucleotide Variation", "acl": ["phs001486"], "type": "simple_somatic_mutation", "file_size": 512782, "created_datetime": "2025-10-06T09:48:17.011320-05:00", "md5sum": "5a40b847125c712115a887fabc113404", "updated_datetime": "2025-10-07T06:54:17.827244-05:00", "file_id": "e289a6d4-62ca-4c5b-b7f2-5cc8b33cbfab", "data_type": "Raw Simple Somatic Mutation", "state": "released", "experimental_strategy": "WGS", "version": "1", "data_release": "44.0 - 45.0"}, {"id": "dee3fb8b-f564-4cc7-81b4-440ad0f81a43", "data_format": "CDC JSON", "access": "open", "file_name": "HCM-STAN-0846-C20.json", "submitter_id": "HCM-STAN-0846-C20_clinical_supplement", "data_category": "Clinical", "acl": ["open"], "type": "clinical_supplement", "file_size": 163681, "created_datetime": "2024-06-12T17:50:41.986799-05:00", "md5sum": "cd5aeccca34c2676e931a7e2bf4edf65", "updated_datetime": "2025-04-07T17:13:09.336794-05:00", "file_id": "dee3fb8b-f564-4cc7-81b4-440ad0f81a43", "data_type": "Clinical Supplement", "state": "released", "version": "1", "data_release": "43.0 - 45.0"}, {"id": "73c96781-329e-44cc-a3d5-c4e8da98c861", "proportion_reads_mapped": 0.9787853967042442, "access": "controlled", "wgs_coverage": "Not Applicable", "proportion_base_mismatch": 0.007678016, "acl": ["phs001486"], "type": "aligned_reads", "platform": "Illumina", "created_datetime": "2024-04-02T12:22:00.139342-05:00", "md5sum": "73c9fa2a4ce91366dcc04491f36a2529", "updated_datetime": "2025-04-07T17:13:09.336794-05:00", "pairs_on_diff_chr": 0, "state": "released", "data_format": "BAM", "total_reads": 17912614, "file_name": "50c0ad9f-bfff-4b30-a00d-61d94d48c27e_mirnaseq_gdc_realn.bam", "proportion_reads_duplicated": 0, "submitter_id": "8ac63c68-0e41-4e3a-b261-2d551736671e", "data_category": "Sequencing Reads", "file_size": 309596680, "average_base_quality": 36, "file_id": "73c96781-329e-44cc-a3d5-c4e8da98c861", "data_type": "Aligned Reads", "average_insert_size": 0, "average_read_length": 25, "experimental_strategy": "miRNA-Seq", "version": "1", "data_release": "43.0 - 45.0"}], "pagination": {"count": 10, "total": 1271450, "size": 10, "from": 0, "sort": "", "page": 1, "pages": 127145}}, "warnings": {}}